[gd_scene load_steps=3 format=3 uid="uid://bqehg5t3bnhqp"]

[ext_resource type="Script" path="res://Game/Score.gd" id="1_3br35"]

[sub_resource type="Theme" id="Theme_p4gjk"]
default_font_size = 50

[node name="Main" type="Node2D"]
script = ExtResource("1_3br35")

[node name="Score" type="Label" parent="."]
offset_right = 40.0
offset_bottom = 23.0
theme = SubResource("Theme_p4gjk")
text = "Score:"
